…
    ## Rows: 35 Columns: 1443
    ## ── Column specification ────────────────────────────────────────────────────────
    ## Delimiter: ","
    ## chr    (1): day
    ## dbl (1442): week, day_id, activity.1, activity.2, activity.3, activity.4, ac...
    ## 
    ## ℹ Use `spec()` to retrieve the full column specification for this data.
    ## ℹ Specify the column types or set `show_col_types = FALSE` to quiet this message.

``` r
accel_data
```

    ## # A tibble: 35 × 1,444
    ## # Groups:   week [5]
    ##     week day_id day      weekd…¹ activ…² activ…³ activ…⁴ activ…⁵ activ…⁶ activ…⁷
    ##    <dbl>  <dbl> <chr>    <chr>     <dbl>   <dbl>   <dbl>   <dbl>   <dbl>   <dbl>
    ##  1     1      1 Friday   weekday    88.4    82.2    64.4    70.0    75.0    66.3
    ##  2     1      2 Monday   weekday     1       1       1       1       1       1  
    ##  3     1      3 Saturday weekde…     1       1       1       1       1       1  
    ##  4     1      4 Sunday   weekde…     1       1       1       1       1       1  
    ##  5     1      5 Thursday weekday    47.4    48.8    46.9    35.8    49.0    44.8
    ##  6     1      6 Tuesday  weekday    64.8    59.5    73.7    45.7    42.4    58.4
    ##  7     1      7 Wednesd… weekday    71.1   103.     68.5    45.4    37.8    18.3
    ##  8     2      8 Friday   weekday   675     542    1010     779     509     106  
    ##  9     2      9 Monday   weekday   291     335     393     335     263     675  
    ## 10     2     10 Saturday weekde…    64      11       1       1       1       1  
    ## # … with 25 more rows, 1,434 more variables: activity_7 <dbl>,
    ## #   activity_8 <dbl>, activity_9 <dbl>, activity_10 <dbl>, activity_11 <dbl>,
    ## #   activity_12 <dbl>, activity_13 <dbl>, activity_14 <dbl>, activity_15 <dbl>,
    ## #   activity_16 <dbl>, activity_17 <dbl>, activity_18 <dbl>, activity_19 <dbl>,
    ## #   activity_20 <dbl>, activity_21 <dbl>, activity_22 <dbl>, activity_23 <dbl>,
    ## #   activity_24 <dbl>, activity_25 <dbl>, activity_26 <dbl>, activity_27 <dbl>,
    ## #   activity_28 <dbl>, activity_29 <dbl>, activity_30 <dbl>, …
…
